{
    "nodes": {
        "1": {
            "label": "user",
            "properties": {
                "color": "red",
                "name": "bob"
            }
        },
        "2": {
            "label": "user",
            "properties": {
                "color": "red",
                "name": "alice"
            }
        },
        "3": {
            "label": "user",
            "properties": {
                "color": "green",
                "name": "bob"
            }
        },
        "4": {
            "label": "result",
            "properties": {
                "score": 12,
                "course": "https://pxt.plexsys.com/pxt-101"
            }
        },
        "5": {
            "label": "course",
            "properties": {
                "name": "https://pxt.plexsys.com/pxt-101",
                "activity": "classroom",
                "mandatory": false
            }
        },
        "6": {
            "label": "course",
            "properties": {
                "name": "https://pxt.plexsys.com/innovation-101",
                "activity": "classroom",
                "mandatory": true
            }
        }
    },
    "edges": {
        "1": [
            {
                "node": "5",
                "label": "completed",
                "properties": {
                    "weight": 1
                }
            }
        ],
        "2": [
            {
                "node": "3",
                "label": "friendOf",
                "properties": {
                    "weight": 1
                }
            },
            {
                "node": "5",
                "label": "completed"
            }
        ],
        "3": [
            {
                "node": "1",
                "label": "parent"
            }
        ]
    }
}